[gd_scene load_steps=15 format=2]

[ext_resource path="res://Scenes/World.gd" type="Script" id=1]
[ext_resource path="res://IMGs/Sheeti.png" type="Texture" id=2]
[ext_resource path="res://Scenes/Blurring.tscn" type="PackedScene" id=3]
[ext_resource path="res://IMGs/Plants.png" type="Texture" id=4]
[ext_resource path="res://Scenes/Player.tscn" type="PackedScene" id=5]
[ext_resource path="res://IMGs/portal/Portal1.png" type="Texture" id=6]
[ext_resource path="res://IMGs/portal/Portal2.png" type="Texture" id=7]
[ext_resource path="res://IMGs/portal/Portal3.png" type="Texture" id=8]
[ext_resource path="res://IMGs/portal/Portal4.png" type="Texture" id=9]
[ext_resource path="res://Scenes/AnimatedSprite.gd" type="Script" id=10]

[sub_resource type="TileSet" id=1]
0/name = "Sheeti.png 0"
0/texture = ExtResource( 2 )
0/tex_offset = Vector2( 0, 0 )
0/modulate = Color( 1, 1, 1, 1 )
0/region = Rect2( 0, 0, 3, 3 )
0/tile_mode = 0
0/occluder_offset = Vector2( 0, 0 )
0/navigation_offset = Vector2( 0, 0 )
0/shapes = [  ]
0/z_index = 0
1/name = "Sheeti.png 1"
1/texture = ExtResource( 2 )
1/tex_offset = Vector2( 0, 0 )
1/modulate = Color( 1, 1, 1, 1 )
1/region = Rect2( 3, 0, 3, 3 )
1/tile_mode = 0
1/occluder_offset = Vector2( 0, 0 )
1/navigation_offset = Vector2( 0, 0 )
1/shapes = [  ]
1/z_index = 0
2/name = "Sheeti.png 2"
2/texture = ExtResource( 2 )
2/tex_offset = Vector2( 0, 0 )
2/modulate = Color( 1, 1, 1, 1 )
2/region = Rect2( 6, 0, 3, 3 )
2/tile_mode = 0
2/occluder_offset = Vector2( 0, 0 )
2/navigation_offset = Vector2( 0, 0 )
2/shapes = [  ]
2/z_index = 0
3/name = "Sheeti.png 3"
3/texture = ExtResource( 2 )
3/tex_offset = Vector2( 0, 0 )
3/modulate = Color( 1, 1, 1, 1 )
3/region = Rect2( 9, 0, 3, 3 )
3/tile_mode = 0
3/occluder_offset = Vector2( 0, 0 )
3/navigation_offset = Vector2( 0, 0 )
3/shapes = [  ]
3/z_index = 0
4/name = "Sheeti.png 4"
4/texture = ExtResource( 2 )
4/tex_offset = Vector2( 0, 0 )
4/modulate = Color( 1, 1, 1, 1 )
4/region = Rect2( 12, 0, 3, 3 )
4/tile_mode = 0
4/occluder_offset = Vector2( 0, 0 )
4/navigation_offset = Vector2( 0, 0 )
4/shapes = [  ]
4/z_index = 0
5/name = "Sheeti.png 5"
5/texture = ExtResource( 2 )
5/tex_offset = Vector2( 0, 0 )
5/modulate = Color( 1, 1, 1, 1 )
5/region = Rect2( 0, 3, 3, 3 )
5/tile_mode = 0
5/occluder_offset = Vector2( 0, 0 )
5/navigation_offset = Vector2( 0, 0 )
5/shapes = [  ]
5/z_index = 0
6/name = "Sheeti.png 6"
6/texture = ExtResource( 2 )
6/tex_offset = Vector2( 0, 0 )
6/modulate = Color( 1, 1, 1, 1 )
6/region = Rect2( 3, 3, 3, 3 )
6/tile_mode = 0
6/occluder_offset = Vector2( 0, 0 )
6/navigation_offset = Vector2( 0, 0 )
6/shapes = [  ]
6/z_index = 0
7/name = "Sheeti.png 7"
7/texture = ExtResource( 2 )
7/tex_offset = Vector2( 0, 0 )
7/modulate = Color( 1, 1, 1, 1 )
7/region = Rect2( 6, 3, 3, 3 )
7/tile_mode = 0
7/occluder_offset = Vector2( 0, 0 )
7/navigation_offset = Vector2( 0, 0 )
7/shapes = [  ]
7/z_index = 0
8/name = "Sheeti.png 8"
8/texture = ExtResource( 2 )
8/tex_offset = Vector2( 0, 0 )
8/modulate = Color( 1, 1, 1, 1 )
8/region = Rect2( 9, 3, 3, 3 )
8/tile_mode = 0
8/occluder_offset = Vector2( 0, 0 )
8/navigation_offset = Vector2( 0, 0 )
8/shapes = [  ]
8/z_index = 0
9/name = "Sheeti.png 9"
9/texture = ExtResource( 2 )
9/tex_offset = Vector2( 0, 0 )
9/modulate = Color( 1, 1, 1, 1 )
9/region = Rect2( 12, 3, 3, 3 )
9/tile_mode = 0
9/occluder_offset = Vector2( 0, 0 )
9/navigation_offset = Vector2( 0, 0 )
9/shapes = [  ]
9/z_index = 0
10/name = "Sheeti.png 10"
10/texture = ExtResource( 2 )
10/tex_offset = Vector2( 0, 0 )
10/modulate = Color( 1, 1, 1, 1 )
10/region = Rect2( 0, 6, 3, 3 )
10/tile_mode = 0
10/occluder_offset = Vector2( 0, 0 )
10/navigation_offset = Vector2( 0, 0 )
10/shapes = [  ]
10/z_index = 0
11/name = "Sheeti.png 11"
11/texture = ExtResource( 2 )
11/tex_offset = Vector2( 0, 0 )
11/modulate = Color( 1, 1, 1, 1 )
11/region = Rect2( 3, 6, 3, 3 )
11/tile_mode = 0
11/occluder_offset = Vector2( 0, 0 )
11/navigation_offset = Vector2( 0, 0 )
11/shapes = [  ]
11/z_index = 0
12/name = "Sheeti.png 12"
12/texture = ExtResource( 2 )
12/tex_offset = Vector2( 0, 0 )
12/modulate = Color( 1, 1, 1, 1 )
12/region = Rect2( 6, 6, 3, 3 )
12/tile_mode = 0
12/occluder_offset = Vector2( 0, 0 )
12/navigation_offset = Vector2( 0, 0 )
12/shapes = [  ]
12/z_index = 0
13/name = "Sheeti.png 13"
13/texture = ExtResource( 2 )
13/tex_offset = Vector2( 0, 0 )
13/modulate = Color( 1, 1, 1, 1 )
13/region = Rect2( 9, 6, 3, 3 )
13/tile_mode = 0
13/occluder_offset = Vector2( 0, 0 )
13/navigation_offset = Vector2( 0, 0 )
13/shapes = [  ]
13/z_index = 0
14/name = "Sheeti.png 14"
14/texture = ExtResource( 2 )
14/tex_offset = Vector2( 0, 0 )
14/modulate = Color( 1, 1, 1, 1 )
14/region = Rect2( 12, 6, 3, 3 )
14/tile_mode = 0
14/occluder_offset = Vector2( 0, 0 )
14/navigation_offset = Vector2( 0, 0 )
14/shapes = [  ]
14/z_index = 0
15/name = "Sheeti.png 15"
15/texture = ExtResource( 2 )
15/tex_offset = Vector2( 0, 0 )
15/modulate = Color( 1, 1, 1, 1 )
15/region = Rect2( 0, 9, 3, 3 )
15/tile_mode = 0
15/occluder_offset = Vector2( 0, 0 )
15/navigation_offset = Vector2( 0, 0 )
15/shapes = [  ]
15/z_index = 0
16/name = "Sheeti.png 16"
16/texture = ExtResource( 2 )
16/tex_offset = Vector2( 0, 0 )
16/modulate = Color( 1, 1, 1, 1 )
16/region = Rect2( 3, 9, 3, 3 )
16/tile_mode = 0
16/occluder_offset = Vector2( 0, 0 )
16/navigation_offset = Vector2( 0, 0 )
16/shapes = [  ]
16/z_index = 0
17/name = "Sheeti.png 17"
17/texture = ExtResource( 2 )
17/tex_offset = Vector2( 0, 0 )
17/modulate = Color( 1, 1, 1, 1 )
17/region = Rect2( 6, 9, 3, 3 )
17/tile_mode = 0
17/occluder_offset = Vector2( 0, 0 )
17/navigation_offset = Vector2( 0, 0 )
17/shapes = [  ]
17/z_index = 0
18/name = "Sheeti.png 18"
18/texture = ExtResource( 2 )
18/tex_offset = Vector2( 0, 0 )
18/modulate = Color( 1, 1, 1, 1 )
18/region = Rect2( 9, 9, 3, 3 )
18/tile_mode = 0
18/occluder_offset = Vector2( 0, 0 )
18/navigation_offset = Vector2( 0, 0 )
18/shapes = [  ]
18/z_index = 0
19/name = "Sheeti.png 19"
19/texture = ExtResource( 2 )
19/tex_offset = Vector2( 0, 0 )
19/modulate = Color( 1, 1, 1, 1 )
19/region = Rect2( 12, 9, 3, 3 )
19/tile_mode = 0
19/occluder_offset = Vector2( 0, 0 )
19/navigation_offset = Vector2( 0, 0 )
19/shapes = [  ]
19/z_index = 0
20/name = "Sheeti.png 20"
20/texture = ExtResource( 2 )
20/tex_offset = Vector2( 0, 0 )
20/modulate = Color( 1, 1, 1, 1 )
20/region = Rect2( 0, 15, 3, 3 )
20/tile_mode = 0
20/occluder_offset = Vector2( 0, 0 )
20/navigation_offset = Vector2( 0, 0 )
20/shapes = [  ]
20/z_index = 0
21/name = "Sheeti.png 21"
21/texture = ExtResource( 2 )
21/tex_offset = Vector2( 0, 0 )
21/modulate = Color( 1, 1, 1, 1 )
21/region = Rect2( 3, 15, 3, 3 )
21/tile_mode = 0
21/occluder_offset = Vector2( 0, 0 )
21/navigation_offset = Vector2( 0, 0 )
21/shapes = [  ]
21/z_index = 0
22/name = "Sheeti.png 22"
22/texture = ExtResource( 2 )
22/tex_offset = Vector2( 0, 0 )
22/modulate = Color( 1, 1, 1, 1 )
22/region = Rect2( 6, 15, 3, 3 )
22/tile_mode = 0
22/occluder_offset = Vector2( 0, 0 )
22/navigation_offset = Vector2( 0, 0 )
22/shapes = [  ]
22/z_index = 0
23/name = "Sheeti.png 23"
23/texture = ExtResource( 2 )
23/tex_offset = Vector2( 0, 0 )
23/modulate = Color( 1, 1, 1, 1 )
23/region = Rect2( 9, 15, 3, 3 )
23/tile_mode = 0
23/occluder_offset = Vector2( 0, 0 )
23/navigation_offset = Vector2( 0, 0 )
23/shapes = [  ]
23/z_index = 0
24/name = "Sheeti.png 24"
24/texture = ExtResource( 2 )
24/tex_offset = Vector2( 0, 0 )
24/modulate = Color( 1, 1, 1, 1 )
24/region = Rect2( 12, 15, 3, 3 )
24/tile_mode = 0
24/occluder_offset = Vector2( 0, 0 )
24/navigation_offset = Vector2( 0, 0 )
24/shapes = [  ]
24/z_index = 0
25/name = "Sheeti.png 25"
25/texture = ExtResource( 2 )
25/tex_offset = Vector2( 0, 0 )
25/modulate = Color( 1, 1, 1, 1 )
25/region = Rect2( 0, 18, 3, 3 )
25/tile_mode = 0
25/occluder_offset = Vector2( 0, 0 )
25/navigation_offset = Vector2( 0, 0 )
25/shapes = [  ]
25/z_index = 0
26/name = "Sheeti.png 26"
26/texture = ExtResource( 2 )
26/tex_offset = Vector2( 0, 0 )
26/modulate = Color( 1, 1, 1, 1 )
26/region = Rect2( 3, 18, 3, 3 )
26/tile_mode = 0
26/occluder_offset = Vector2( 0, 0 )
26/navigation_offset = Vector2( 0, 0 )
26/shapes = [  ]
26/z_index = 0
27/name = "Sheeti.png 27"
27/texture = ExtResource( 2 )
27/tex_offset = Vector2( 0, 0 )
27/modulate = Color( 1, 1, 1, 1 )
27/region = Rect2( 6, 18, 3, 3 )
27/tile_mode = 0
27/occluder_offset = Vector2( 0, 0 )
27/navigation_offset = Vector2( 0, 0 )
27/shapes = [  ]
27/z_index = 0
28/name = "Sheeti.png 28"
28/texture = ExtResource( 2 )
28/tex_offset = Vector2( 0, 0 )
28/modulate = Color( 1, 1, 1, 1 )
28/region = Rect2( 9, 18, 3, 3 )
28/tile_mode = 0
28/occluder_offset = Vector2( 0, 0 )
28/navigation_offset = Vector2( 0, 0 )
28/shapes = [  ]
28/z_index = 0
29/name = "Sheeti.png 29"
29/texture = ExtResource( 2 )
29/tex_offset = Vector2( 0, 0 )
29/modulate = Color( 1, 1, 1, 1 )
29/region = Rect2( 12, 18, 3, 3 )
29/tile_mode = 0
29/occluder_offset = Vector2( 0, 0 )
29/navigation_offset = Vector2( 0, 0 )
29/shapes = [  ]
29/z_index = 0
30/name = "Sheeti.png 30"
30/texture = ExtResource( 2 )
30/tex_offset = Vector2( 0, 0 )
30/modulate = Color( 1, 1, 1, 1 )
30/region = Rect2( 0, 21, 3, 3 )
30/tile_mode = 0
30/occluder_offset = Vector2( 0, 0 )
30/navigation_offset = Vector2( 0, 0 )
30/shapes = [  ]
30/z_index = 0
31/name = "Sheeti.png 31"
31/texture = ExtResource( 2 )
31/tex_offset = Vector2( 0, 0 )
31/modulate = Color( 1, 1, 1, 1 )
31/region = Rect2( 3, 21, 3, 3 )
31/tile_mode = 0
31/occluder_offset = Vector2( 0, 0 )
31/navigation_offset = Vector2( 0, 0 )
31/shapes = [  ]
31/z_index = 0
32/name = "Sheeti.png 32"
32/texture = ExtResource( 2 )
32/tex_offset = Vector2( 0, 0 )
32/modulate = Color( 1, 1, 1, 1 )
32/region = Rect2( 6, 21, 3, 3 )
32/tile_mode = 0
32/occluder_offset = Vector2( 0, 0 )
32/navigation_offset = Vector2( 0, 0 )
32/shapes = [  ]
32/z_index = 0
33/name = "Sheeti.png 33"
33/texture = ExtResource( 2 )
33/tex_offset = Vector2( 0, 0 )
33/modulate = Color( 1, 1, 1, 1 )
33/region = Rect2( 9, 21, 3, 3 )
33/tile_mode = 0
33/occluder_offset = Vector2( 0, 0 )
33/navigation_offset = Vector2( 0, 0 )
33/shapes = [  ]
33/z_index = 0
34/name = "Sheeti.png 34"
34/texture = ExtResource( 2 )
34/tex_offset = Vector2( 0, 0 )
34/modulate = Color( 1, 1, 1, 1 )
34/region = Rect2( 12, 21, 3, 3 )
34/tile_mode = 0
34/occluder_offset = Vector2( 0, 0 )
34/navigation_offset = Vector2( 0, 0 )
34/shapes = [  ]
34/z_index = 0
35/name = "Sheeti.png 35"
35/texture = ExtResource( 2 )
35/tex_offset = Vector2( 0, 0 )
35/modulate = Color( 1, 1, 1, 1 )
35/region = Rect2( 0, 27, 3, 3 )
35/tile_mode = 0
35/occluder_offset = Vector2( 0, 0 )
35/navigation_offset = Vector2( 0, 0 )
35/shapes = [  ]
35/z_index = 0
36/name = "Sheeti.png 36"
36/texture = ExtResource( 2 )
36/tex_offset = Vector2( 0, 0 )
36/modulate = Color( 1, 1, 1, 1 )
36/region = Rect2( 3, 24, 3, 3 )
36/tile_mode = 0
36/occluder_offset = Vector2( 0, 0 )
36/navigation_offset = Vector2( 0, 0 )
36/shapes = [  ]
36/z_index = 0
37/name = "Sheeti.png 37"
37/texture = ExtResource( 2 )
37/tex_offset = Vector2( 0, 0 )
37/modulate = Color( 1, 1, 1, 1 )
37/region = Rect2( 6, 24, 3, 3 )
37/tile_mode = 0
37/occluder_offset = Vector2( 0, 0 )
37/navigation_offset = Vector2( 0, 0 )
37/shapes = [  ]
37/z_index = 0
38/name = "Sheeti.png 38"
38/texture = ExtResource( 2 )
38/tex_offset = Vector2( 0, 0 )
38/modulate = Color( 1, 1, 1, 1 )
38/region = Rect2( 9, 24, 3, 3 )
38/tile_mode = 0
38/occluder_offset = Vector2( 0, 0 )
38/navigation_offset = Vector2( 0, 0 )
38/shapes = [  ]
38/z_index = 0
39/name = "Sheeti.png 39"
39/texture = ExtResource( 2 )
39/tex_offset = Vector2( 0, 0 )
39/modulate = Color( 1, 1, 1, 1 )
39/region = Rect2( 9, 27, 3, 3 )
39/tile_mode = 0
39/occluder_offset = Vector2( 0, 0 )
39/navigation_offset = Vector2( 0, 0 )
39/shapes = [  ]
39/z_index = 0

[sub_resource type="TileSet" id=2]
0/name = "Plants.png 0"
0/texture = ExtResource( 4 )
0/tex_offset = Vector2( 0, 0 )
0/modulate = Color( 1, 1, 1, 1 )
0/region = Rect2( 0, 0, 175, 175 )
0/tile_mode = 0
0/occluder_offset = Vector2( 0, 0 )
0/navigation_offset = Vector2( 0, 0 )
0/shapes = [  ]
0/z_index = 0
1/name = "Plants.png 1"
1/texture = ExtResource( 4 )
1/tex_offset = Vector2( 0, 0 )
1/modulate = Color( 1, 1, 1, 1 )
1/region = Rect2( 175, 0, 175, 175 )
1/tile_mode = 0
1/occluder_offset = Vector2( 0, 0 )
1/navigation_offset = Vector2( 0, 0 )
1/shapes = [  ]
1/z_index = 0
2/name = "Plants.png 2"
2/texture = ExtResource( 4 )
2/tex_offset = Vector2( 0, 0 )
2/modulate = Color( 1, 1, 1, 1 )
2/region = Rect2( 350, 0, 175, 175 )
2/tile_mode = 0
2/occluder_offset = Vector2( 0, 0 )
2/navigation_offset = Vector2( 0, 0 )
2/shapes = [  ]
2/z_index = 0
3/name = "Plants.png 3"
3/texture = ExtResource( 4 )
3/tex_offset = Vector2( 0, 0 )
3/modulate = Color( 1, 1, 1, 1 )
3/region = Rect2( 525, 0, 175, 175 )
3/tile_mode = 0
3/occluder_offset = Vector2( 0, 0 )
3/navigation_offset = Vector2( 0, 0 )
3/shapes = [  ]
3/z_index = 0
4/name = "Plants.png 4"
4/texture = ExtResource( 4 )
4/tex_offset = Vector2( 0, 0 )
4/modulate = Color( 1, 1, 1, 1 )
4/region = Rect2( 700, 0, 175, 175 )
4/tile_mode = 0
4/occluder_offset = Vector2( 0, 0 )
4/navigation_offset = Vector2( 0, 0 )
4/shapes = [  ]
4/z_index = 0
5/name = "Plants.png 5"
5/texture = ExtResource( 4 )
5/tex_offset = Vector2( 0, 0 )
5/modulate = Color( 1, 1, 1, 1 )
5/region = Rect2( 875, 0, 175, 175 )
5/tile_mode = 0
5/occluder_offset = Vector2( 0, 0 )
5/navigation_offset = Vector2( 0, 0 )
5/shapes = [  ]
5/z_index = 0
6/name = "Plants.png 6"
6/texture = ExtResource( 4 )
6/tex_offset = Vector2( 0, 0 )
6/modulate = Color( 1, 1, 1, 1 )
6/region = Rect2( 1050, 0, 175, 175 )
6/tile_mode = 0
6/occluder_offset = Vector2( 0, 0 )
6/navigation_offset = Vector2( 0, 0 )
6/shapes = [  ]
6/z_index = 0

[sub_resource type="SpriteFrames" id=3]
animations = [ {
"frames": [ ExtResource( 6 ), ExtResource( 7 ), ExtResource( 8 ), ExtResource( 9 ), ExtResource( 8 ), ExtResource( 7 ), ExtResource( 8 ), ExtResource( 7 ), ExtResource( 9 ), ExtResource( 8 ), ExtResource( 9 ), ExtResource( 8 ), ExtResource( 9 ), ExtResource( 7 ), ExtResource( 7 ), ExtResource( 9 ), ExtResource( 8 ), ExtResource( 7 ), ExtResource( 8 ), ExtResource( 9 ) ],
"loop": true,
"name": "portal",
"speed": 2.0
} ]

[sub_resource type="CircleShape2D" id=4]
radius = 42.9948

[node name="Worldmap" type="Node"]
script = ExtResource( 1 )

[node name="Map" type="TileMap" parent="."]
scale = Vector2( 3, 3 )
tile_set = SubResource( 1 )
cell_size = Vector2( 3, 3 )
cell_quadrant_size = 3
format = 1

[node name="Control" parent="." instance=ExtResource( 3 )]
margin_left = -81.8169
margin_top = -119.037
margin_right = 3906.18
margin_bottom = 2284.96
rect_scale = Vector2( 1.13813, 1.30658 )

[node name="Overlay" type="TileMap" parent="."]
scale = Vector2( 0.17, 0.17 )
tile_set = SubResource( 2 )
cell_size = Vector2( 14, 14 )
cell_quadrant_size = 14
format = 1
tile_data = PoolIntArray( -2096791, 0, 0 )

[node name="Player" parent="." instance=ExtResource( 5 )]

[node name="AnimatedSprite" type="AnimatedSprite" parent="."]
position = Vector2( 34.4506, 0 )
scale = Vector2( 0.8, 0.8 )
frames = SubResource( 3 )
animation = "portal"
frame = 13
playing = true
script = ExtResource( 10 )
__meta__ = {
"_edit_group_": true,
"_edit_lock_": true
}

[node name="Area2D" type="Area2D" parent="AnimatedSprite"]

[node name="CollisionShape2D" type="CollisionShape2D" parent="AnimatedSprite/Area2D"]
position = Vector2( 6.7358, 8.98106 )
shape = SubResource( 4 )
[connection signal="body_entered" from="AnimatedSprite/Area2D" to="." method="_on_Area2D_body_entered"]
