[gd_scene load_steps=8 format=2]

[ext_resource path="res://IMGs/enemy/Player_move1.png" type="Texture" id=1]
[ext_resource path="res://IMGs/enemy/Player_move2.png" type="Texture" id=2]
[ext_resource path="res://IMGs/enemy/Player_move3.png" type="Texture" id=3]
[ext_resource path="res://IMGs/enemy/Player_dead.png" type="Texture" id=4]

[sub_resource type="GDScript" id=1]

[sub_resource type="SpriteFrames" id=2]
animations = [ {
"frames": [ ExtResource( 1 ) ],
"loop": false,
"name": "idle",
"speed": 0.0
}, {
"frames": [ ExtResource( 1 ), ExtResource( 2 ), ExtResource( 3 ) ],
"loop": true,
"name": "walk",
"speed": 12.0
}, {
"frames": [ ExtResource( 4 ) ],
"loop": false,
"name": "dead",
"speed": 0.0
} ]

[sub_resource type="RectangleShape2D" id=3]
extents = Vector2( 34.4053, 36.9404 )

[node name="Enemy" type="KinematicBody2D"]
script = SubResource( 1 )

[node name="AnimatedSprite" type="AnimatedSprite" parent="."]
position = Vector2( 1.14035, -1.01814 )
frames = SubResource( 2 )
animation = "walk"
frame = 2
playing = true

[node name="CollisionShape2D" type="CollisionShape2D" parent="."]
position = Vector2( -3.97885, -1.58694 )
shape = SubResource( 3 )
